{
  "name": "ORT API",
  "version": "1.0.0",
  "server.host": "0.0.0.0",
  "server.port": 8151,
  "enable.http.compression": true,
  "db": {
    "url": "jdbc:postgresql://ort.uz:5432/ortapi",
    "driver": "org.postgresql.Driver",
    "maxPoolSize": 30,
    "username": "ortapi",
    "password": "ortapi",
    "charset": "UTF-8",
    "queryTimeout": 10000,
    "datasource": "dsOrtApi"
  }
}